{
	"id": "88ee8f91-d224-4240-afe3-4725db459e8f",
	"name": "Task-send-email-to-create-account",
	"description": "",
	"order": [
		"0b2fc556-8f3b-3a9f-0965-5358cbe37ddc",
		"8e003160-1939-f47e-45a3-a3fb956d1e8e",
		"8c9e677d-ea7a-c3ce-1a31-9a9b6f73ea04",
		"bac9e6f2-520f-1433-61e0-25a436271c47",
		"e84188a7-3166-6694-0cff-cbef098ea4fa",
		"fb41db08-2586-b7f3-351a-267352269bdb",
		"4883dc22-bca4-6162-d8fe-730f2884fab5",
		"03f1153b-497d-93f1-a133-165af11146bd",
		"32a32fc3-eae2-f42c-7600-737ed6ae9f38",
		"a011ea36-5447-dbf0-90e2-f7c12b28e2dd"
	],
	"folders": [],
	"timestamp": 1483997061980,
	"owner": "54579",
	"public": false,
	"requests": [
		{
			"id": "03f1153b-497d-93f1-a133-165af11146bd",
			"headers": "Content-Type: application/json\nAuthorization: Bearer eyJhbGciOiJIUzI1NiIsInR5cCI6IkpXVCJ9.eyJpc3MiOiJteS1hcHAiLCJpYXQiOiIyMDE1LTEwLTA5VDA1OjExOjI3LjUzNzc3MjdaIiwiZXhwIjpudWxsLCJzdWIiOm51bGwsInRlbmFudCI6Im15LXRlbmFudCIsInNjb3BlIjpudWxsfQ.vVcomx0eqAs8WvFWEB-ntIB8kaijAqEzXB1AC8bNvaM\n",
			"url": "{{default_host}}:5055/",
			"preRequestScript": null,
			"pathVariables": {},
			"method": "PUT",
			"data": [],
			"dataMode": "raw",
			"tests": null,
			"currentHelper": "normal",
			"helperAttributes": {},
			"time": 1482770684571,
			"name": "Create Template",
			"description": "",
			"collectionId": "88ee8f91-d224-4240-afe3-4725db459e8f",
			"responses": [],
			"rawModeData": "{\r\n    \"name\":\"create_borrower\",\r\n    \"title\": \"Create Borrower Account\",\r\n    \"format\": \"Html\",\r\n    \"body\": \"<!DOCTYPE html><html lang=\\\"en\\\" xmlns=\\\"http://www.w3.org/1999/xhtml\\\"><head><link href=\\\"https://maxcdn.bootstrapcdn.com/font-awesome/4.7.0/css/font-awesome.min.css\\\" rel=\\\"stylesheet\\\" integrity=\\\"sha384-wvfXpqpZZVQGK6TAh5PVlGOfQNHSoD2xbE+QkPxCAFlNEevoEH3Sl0sibVcOQVnN\\\" crossorigin=\\\"anonymous\\\"><style>body{font-family:'Segoe UI',Tahoma,Geneva,Verdana,sans-serif;font-size:12px}table{width:100%;border-collapse:collapse}.align_center{text-align:center}.align_right{text-align:right}tr th, tr td{padding:5px}.table_noborder tr td, .table_noborder tr th{border:none}.textborder{padding:5px;display:inline}.annualincomecell{background-color:khaki}.portrait{padding:5px 5px}img{width:160px}.pagebreak{page-break-before:always}.button{background-color:#4CAF50;border:none;color:white;padding:15px 32px;text-align:center;text-decoration:none;display:inline-block;font-size:16px;margin:4px 2px;cursor:pointer}.right-p{float:right;position:relative;top:0px;left:-20px}.rhombus{width:36px;height:36px;background:#4CAF50;transform:rotate(45deg);-ms-transform:rotate(45deg);-webkit-transform:rotate(45deg)}.custom-button{float:left}.contact-area i{font-size:20px}.contact-area a{text-decoration:none}.clear{clear:both}</style></head><body><table class=\\\"pagebreak\\\" cellpadding=\\\"0\\\" cellspacing=\\\"0\\\"><tr><td><table class=\\\"table_noborder header\\\" cellpadding=\\\"0\\\" cellspacing=\\\"0\\\"><tr><td><div class=\\\"portrait\\\"> <img src=\\\"https://www.lendingusa.com/images/logo.jpg\\\" alt=\\\"LendingUSA\\\" title=\\\"LendingUSA\\\" /></div></td></tr><tr><td><b>Dear {{FirstName}},</b></td></tr><tr><td></td></tr><tr><td><p> <b>You are almost done!</b>&nbsp;We just need a little more information.</p><p> <b><u>Click on the link below</u></b>&nbsp;to go straight to your portal to provide further details.</p></td></tr><tr><td></td></tr><tr><td></td></tr><tr><td></td></tr><tr><td></td></tr><tr><td></td></tr><tr><td></td></tr><tr><td><div class=\\\"custom-button\\\"> <a href=\\\"{{Link}}{{BorrowerToken}}\\\" class=\\\"button\\\">Take me to my personal portal</a> </p></div><div class=\\\"clear\\\"></div><p>If the button doesn't immediately load, you can copy this link in your browser: <a href=\\\"{{Link}}{{BorrowerToken}}\\\">{{Link}}...</a></p><p>USER ID:&nbsp;{{Email}}</p><p>If you need assistance, <u>our friendly team is only a phone call, chat or email away</u>. We are commited to making your financing expirence fast, fair and efficient.</p><p><b>The LendingUSA Loan Specialist Team</b></p><div class=\\\"contact-area\\\"> <i class=\\\"fa fa-phone-square fa-2\\\" aria-hidden=\\\"true\\\"></i> 1-800-994-6177</div><div class=\\\"contact-area\\\"> <i class=\\\"fa fa-envelope-square fa-2\\\" aria-hidden=\\\"true\\\"></i> <a href=\\\"mailto:LSTeam@lendingUSA.com\\\">LSTeam@lendingUSA.com</a></div><div class=\\\"contact-area\\\"> <i class=\\\"fa fa-globe fa-2\\\" aria-hidden=\\\"true\\\"></i> <a href=\\\"https://www.LendingUSA.com\\\">LendingUSA.com</a></div></td></tr></table></td></tr></table></body></html>\",\r\n    \"version\": \"v1\",\r\n    \"properties\": {\r\n      \"pageSize\": \"A4\",\r\n      \"pageWidth\": \"21cm\",\r\n      \"pageHeight\": \"29.7cm\",\r\n      \"orientation\": \"portrait\",\r\n      \"dpi\": 300,\r\n      \"imageQuality\": 90,\r\n      \"marginTop\": \"10\",\r\n      \"marginBottom\": \"10\",\r\n      \"marginLeft\": \"10\",\r\n      \"marginRight\": \"10\"\r\n    }\r\n}"
		},
		{
			"id": "0b2fc556-8f3b-3a9f-0965-5358cbe37ddc",
			"headers": "Authorization: Bearer eyJhbGciOiJIUzI1NiIsInR5cCI6IkpXVCJ9.eyJpc3MiOiJteS1hcHAiLCJpYXQiOiIyMDE1LTEwLTA5VDA1OjExOjI3LjUzNzc3MjdaIiwiZXhwIjpudWxsLCJzdWIiOm51bGwsInRlbmFudCI6Im15LXRlbmFudCIsInNjb3BlIjpudWxsfQ.vVcomx0eqAs8WvFWEB-ntIB8kaijAqEzXB1AC8bNvaM\nContent-Type: application/json\n",
			"url": "{{default_host}}:{{configuration_port}}/tenant",
			"preRequestScript": "",
			"pathVariables": {},
			"method": "POST",
			"data": [],
			"dataMode": "raw",
			"version": 2,
			"tests": "",
			"currentHelper": "normal",
			"helperAttributes": {},
			"time": 1482770182059,
			"name": "Config - Tenant",
			"description": "",
			"collectionId": "88ee8f91-d224-4240-afe3-4725db459e8f",
			"responses": [],
			"rawModeData": "{\r\n    \"paymentTimeLimit\": \"19\",\r\n    \"isActive\": \"True\",\r\n    \"name\": \"my-tenant\",\r\n    \"website\": \"www.lendfoundry.com\",\r\n    \"email\": \"my-tenantX@lendfoundry.com\",\r\n    \"phone\": \"anything\",\r\n    \"timezone\": \"America/Los_Angeles\"\r\n}"
		},
		{
			"id": "32a32fc3-eae2-f42c-7600-737ed6ae9f38",
			"headers": "Authorization: Bearer eyJhbGciOiJIUzI1NiIsInR5cCI6IkpXVCJ9.eyJpc3MiOiJteS1hcHAiLCJpYXQiOiIyMDE1LTEwLTA5VDA1OjExOjI3LjUzNzc3MjdaIiwiZXhwIjpudWxsLCJzdWIiOm51bGwsInRlbmFudCI6Im15LXRlbmFudCIsInNjb3BlIjpudWxsfQ.vVcomx0eqAs8WvFWEB-ntIB8kaijAqEzXB1AC8bNvaM\nContent-Type: application/json\n",
			"url": "{{default_host}}:5055/create_borrower/v1/html/process",
			"preRequestScript": null,
			"pathVariables": {},
			"method": "POST",
			"data": [],
			"dataMode": "raw",
			"tests": null,
			"currentHelper": "normal",
			"helperAttributes": {},
			"time": 1484003513889,
			"name": "Process Template",
			"description": "",
			"collectionId": "88ee8f91-d224-4240-afe3-4725db459e8f",
			"responses": [],
			"rawModeData": "{\r\n\t\"FirstName\": \"Marcio\",\r\n\t\"LastName\": \"Lourenço\",\r\n\t\"Email\": \"marcio.l@lendfoundry.com\",\r\n\t\"Link\":\"http://192.168.1.9:9005/#/create-account/token:\",\r\n\t\"BorrowerToken\": \"{{BorrowerToken}}\"\r\n}"
		},
		{
			"id": "4883dc22-bca4-6162-d8fe-730f2884fab5",
			"headers": "Authorization: Bearer eyJhbGciOiJIUzI1NiIsInR5cCI6IkpXVCJ9.eyJpc3MiOiJteS1hcHAiLCJpYXQiOiIyMDE1LTEwLTA5VDA1OjExOjI3LjUzNzc3MjdaIiwiZXhwIjpudWxsLCJzdWIiOm51bGwsInRlbmFudCI6Im15LXRlbmFudCIsInNjb3BlIjpudWxsfQ.vVcomx0eqAs8WvFWEB-ntIB8kaijAqEzXB1AC8bNvaM\nContent-Type: application/json\n",
			"url": "{{default_host}}:{{lookup_port}}/entityTypes",
			"pathVariables": {},
			"preRequestScript": null,
			"method": "POST",
			"collectionId": "88ee8f91-d224-4240-afe3-4725db459e8f",
			"data": [],
			"dataMode": "raw",
			"name": "Lookup : Add entityTypes",
			"description": "",
			"descriptionFormat": "html",
			"time": 1483977359092,
			"version": 2,
			"responses": [],
			"tests": null,
			"currentHelper": "normal",
			"helperAttributes": {},
			"rawModeData": "{\r\n    \"merchant\": \"merchant\",\r\n    \"application\": \"application\",\r\n    \"loan\": \"loan\",\r\n    \"user\": \"user\",\r\n    \"borrower\": \"borrower\"\r\n}"
		},
		{
			"id": "8c9e677d-ea7a-c3ce-1a31-9a9b6f73ea04",
			"headers": "Authorization: Bearer eyJhbGciOiJIUzI1NiIsInR5cCI6IkpXVCJ9.eyJpc3MiOiJteS1hcHAiLCJpYXQiOiIyMDE1LTEwLTA5VDA1OjExOjI3LjUzNzc3MjdaIiwiZXhwIjpudWxsLCJzdWIiOm51bGwsInRlbmFudCI6Im15LXRlbmFudCIsInNjb3BlIjpudWxsfQ.vVcomx0eqAs8WvFWEB-ntIB8kaijAqEzXB1AC8bNvaM\nContent-Type: application/json\n",
			"url": "{{default_host}}:{{configuration_port}}/application",
			"preRequestScript": "",
			"pathVariables": {},
			"method": "POST",
			"data": [],
			"dataMode": "raw",
			"version": 2,
			"tests": "",
			"currentHelper": "normal",
			"helperAttributes": {},
			"time": 1482769983124,
			"name": "Config - Application",
			"description": "",
			"collectionId": "88ee8f91-d224-4240-afe3-4725db459e8f",
			"responses": [],
			"rawModeData": "{\r\n\t\"events\": [\r\n\t  {\r\n\t    \"Name\": \"ApplicationStatusChanged\",\r\n\t    \"ApplicationNumber\": \"{Data.EntityId}\"\r\n\t  }\r\n\t],\r\n\t\"Expiration\": {\r\n\t  \"DaysToExpire\": \"30\"\r\n\t},\r\n\t\"DuplicateStatuses\": [ \"500.01\", \"500.02\", \"500.03\", \"500.04\" ]\r\n}"
		},
		{
			"id": "8e003160-1939-f47e-45a3-a3fb956d1e8e",
			"headers": "Authorization: Bearer eyJhbGciOiJIUzI1NiIsInR5cCI6IkpXVCJ9.eyJpc3MiOiJteS1hcHAiLCJpYXQiOiIyMDE1LTEwLTA5VDA1OjExOjI3LjUzNzc3MjdaIiwiZXhwIjpudWxsLCJzdWIiOm51bGwsInRlbmFudCI6Im15LXRlbmFudCIsInNjb3BlIjpudWxsfQ.vVcomx0eqAs8WvFWEB-ntIB8kaijAqEzXB1AC8bNvaM\nContent-Type: application/json\n",
			"url": "{{default_host}}:5008/task_send_email_to_create_account",
			"preRequestScript": "",
			"pathVariables": {},
			"method": "POST",
			"data": [],
			"dataMode": "raw",
			"version": 2,
			"tests": "",
			"currentHelper": "normal",
			"helperAttributes": {},
			"time": 1484235045797,
			"name": "Config - task_send_email_to_create_account",
			"description": "",
			"collectionId": "88ee8f91-d224-4240-afe3-4725db459e8f",
			"responses": [],
			"rawModeData": "{\r\n  \t\"entityId\": \"{Data.Application.ApplicationNumber}\",\r\n    \"entityType\": \"Application\",\r\n    \"eventName\": \"ApplicationCreated\",\r\n    \"link\": \"http://192.168.1.9:9005/#/create-account/token:\",\r\n    \"templateName\": \"create_borrower\",\r\n    \"templateVersion\": \"v1\"\r\n}"
		},
		{
			"id": "a011ea36-5447-dbf0-90e2-f7c12b28e2dd",
			"headers": "Authorization: Bearer eyJhbGciOiJIUzI1NiIsInR5cCI6IkpXVCJ9.eyJpc3MiOiJteS1hcHAiLCJpYXQiOiIyMDE1LTEwLTA5VDA1OjExOjI3LjUzNzc3MjdaIiwiZXhwIjpudWxsLCJzdWIiOm51bGwsInRlbmFudCI6Im15LXRlbmFudCIsInNjb3BlIjpudWxsfQ.vVcomx0eqAs8WvFWEB-ntIB8kaijAqEzXB1AC8bNvaM\nContent-Type: application/json\n",
			"url": "{{default_host}}:{{application_port}}",
			"preRequestScript": "var guid = (function() {\n  function s4() {\n    return Math.floor((1 + Math.random()) * 0x10000)\n               .toString(16)\n               .substring(1);\n  }\n  return function() {\n    return s4() + s4() + '-' + s4() + '-' + s4() + '-' +\n           s4() + '-' + s4() + s4() + s4();\n  };\n})();",
			"pathVariables": {},
			"method": "PUT",
			"data": [],
			"dataMode": "raw",
			"tests": "tests[\"Status code is 200\"] = responseCode.code === 200;\n\ntests[\"should have response\"] = responseBody !== \"\";\n\nif(tests[\"should have response\"]){\n    var response = JSON.parse(responseBody);\n    tests[\"Should have Application Number\"] = response.applicationNumber!==null;\n    tests[\"Should have Applicants\"] = response.applicants!==null;\n    tests[\"Should have Applicant Id\"] = response.applicants[0].applicantId !==null;\n    postman.setEnvironmentVariable(\"currentApplicationNumber\",response.applicationNumber);\n    postman.setEnvironmentVariable(\"currentApplicantNumber\",response.applicants[0].applicantId);\n}",
			"currentHelper": "normal",
			"helperAttributes": {},
			"time": 1483987196477,
			"name": "Create Application",
			"description": "",
			"collectionId": "88ee8f91-d224-4240-afe3-4725db459e8f",
			"responses": [],
			"rawModeData": "{\r\n    \"amount\": 50.000,\r\n    \"purpose\": \"Travel\",\r\n    \"scoreRange\": null,\r\n    \"scores\":[{\r\n        \"name\":\"score-name\",\r\n        \"date\":\"2016-01-01\",\r\n        \"value\":\"850\"\r\n    }],\r\n    \"source\":{\r\n        \"type\":\"Merchant\",\r\n        \"id\" : \"MER0000000014\"\r\n    },\r\n            \"bankAccounts\": [{\r\n            \"routingNumber\": \"001\",\r\n            \"accountNumber\": \"219\",\r\n            \"accountType\": \"checking\"\r\n        }],\r\n    \"applicants\": [{\r\n        \"firstName\": \"Marcio\",\r\n        \"lastName\": \"Lourenço\",\r\n        \"middleName\": \"\",\r\n        \"ssn\": \"666001666\",\r\n        \"addresses\": [{\r\n            \"line1\": \"532 Santa Maria Drive\",\r\n            \"line2\": null,\r\n            \"line3\": null,\r\n            \"city\": \"Irvine\",\r\n            \"state\": \"CA\",\r\n            \"zipCode\": \"92606\",\r\n            \"country\": \"USA\",\r\n            \"type\": \"Home\",\r\n            \"isVerified\": false,\r\n            \"isPrimary\": false\r\n        }],\r\n        \"phoneNumbers\": [{\r\n            \"number\": \"7707523287\",\r\n            \"type\": \"mobile\"\r\n        }],\r\n        \"email\": \"marcio.l@lendfoundry.com\",\r\n        \"password\": \"testing123#\",\r\n        \"statedGrossAnnualIncome\": 24121231230,\r\n        \"homeOwnership\": \"Rent\",\r\n        \"employmentStatus\": \"Employed\",\r\n        \"identities\": [{\r\n            \"name\": \"dl\",\r\n            \"number\": \"123\"\r\n        }],\r\n        \"currentEmployer\": {\r\n            \"name\": \"sigma\",\r\n            \"address\": {\r\n                \"line1\": \"f-202\",\r\n                \"line2\": null,\r\n                \"line3\": null,\r\n                \"city\": null,\r\n                \"state\": null,\r\n                \"zipCode\": null,\r\n                \"country\": null,\r\n                \"type\": \"Home\",\r\n                \"isVerified\": false,\r\n                \"isPrimary\": false\r\n            },\r\n            \"phoneNumber\": null,\r\n            \"lengthOfEmploymentInMonths\": 0,\r\n            \"isVerified\": false\r\n        }\r\n    }]\r\n}"
		},
		{
			"id": "bac9e6f2-520f-1433-61e0-25a436271c47",
			"headers": "Authorization: Bearer eyJhbGciOiJIUzI1NiIsInR5cCI6IkpXVCJ9.eyJpc3MiOiJteS1hcHAiLCJpYXQiOiIyMDE1LTEwLTA5VDA1OjExOjI3LjUzNzc3MjdaIiwiZXhwIjpudWxsLCJzdWIiOm51bGwsInRlbmFudCI6Im15LXRlbmFudCIsInNjb3BlIjpudWxsfQ.vVcomx0eqAs8WvFWEB-ntIB8kaijAqEzXB1AC8bNvaM\nContent-Type: application/json\n",
			"url": "{{default_host}}:{{configuration_port}}/number-generator",
			"preRequestScript": "",
			"pathVariables": {},
			"method": "POST",
			"data": [],
			"dataMode": "raw",
			"version": 2,
			"tests": "",
			"currentHelper": "normal",
			"helperAttributes": {},
			"time": 1482770038426,
			"name": "Config - NumberGenerator",
			"description": "",
			"collectionId": "88ee8f91-d224-4240-afe3-4725db459e8f",
			"responses": [],
			"rawModeData": "{\r\n  \"configurations\": {\r\n      \"loan\": {\r\n        \"prefix\": \"LOAN\",\r\n        \"suffix\": \"\",\r\n        \"type\": \"Incremental\",\r\n        \"separator\": \"_\",\r\n        \"startsFrom\": 100,\r\n        \"leftPadding\": 10\r\n      },\r\n      \"application\": {\r\n        \"prefix\": \"LCUSA-\",\r\n        \"suffix\": \"\",\r\n        \"type\": \"Incremental\",\r\n        \"separator\": \"\",\r\n        \"startsFrom\": 1,\r\n        \"leftPadding\": 7\r\n      },\r\n      \"merchant\": {\r\n        \"prefix\": \"MER\",\r\n        \"suffix\": \"\",\r\n        \"type\": \"Incremental\",\r\n        \"separator\": \"\",\r\n        \"startsFrom\": 0,\r\n        \"leftPadding\": 10\r\n      }\r\n    }\r\n}"
		},
		{
			"id": "e84188a7-3166-6694-0cff-cbef098ea4fa",
			"headers": "Authorization: Bearer eyJhbGciOiJIUzI1NiIsInR5cCI6IkpXVCJ9.eyJpc3MiOiJteS1hcHAiLCJpYXQiOiIyMDE1LTEwLTA5VDA1OjExOjI3LjUzNzc3MjdaIiwiZXhwIjpudWxsLCJzdWIiOm51bGwsInRlbmFudCI6Im15LXRlbmFudCIsInNjb3BlIjpudWxsfQ.vVcomx0eqAs8WvFWEB-ntIB8kaijAqEzXB1AC8bNvaM\nContent-Type: application/json\n",
			"url": "{{default_host}}:{{configuration_port}}/email",
			"preRequestScript": "",
			"pathVariables": {},
			"method": "POST",
			"data": [],
			"dataMode": "raw",
			"version": 2,
			"tests": "",
			"currentHelper": "normal",
			"helperAttributes": {},
			"time": 1482770171079,
			"name": "Config - Email",
			"description": "",
			"collectionId": "88ee8f91-d224-4240-afe3-4725db459e8f",
			"responses": [],
			"rawModeData": "{\r\n  \"emailProvider\": \"Sendgrid\",\r\n  \"emailProviderSettings\": {\r\n    \"Sendgrid\": {\r\n      \"ApiKey\": \"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\",\r\n      \"FromName\": \"LendFoundry Development\",\r\n      \"FromAddress\": \"development@lendfoundry.com\"\r\n    }\r\n  }\r\n}"
		},
		{
			"id": "fb41db08-2586-b7f3-351a-267352269bdb",
			"headers": "Authorization: Bearer eyJhbGciOiJIUzI1NiIsInR5cCI6IkpXVCJ9.eyJpc3MiOiJteS1hcHAiLCJpYXQiOiIyMDE1LTEwLTA5VDA1OjExOjI3LjUzNzc3MjdaIiwiZXhwIjpudWxsLCJzdWIiOm51bGwsInRlbmFudCI6Im15LXRlbmFudCIsInNjb3BlIjpudWxsfQ.vVcomx0eqAs8WvFWEB-ntIB8kaijAqEzXB1AC8bNvaM\nContent-Type: application/json\n",
			"url": "{{default_host}}:{{configuration_port}}/documentmanager",
			"preRequestScript": "",
			"pathVariables": {},
			"method": "POST",
			"data": [],
			"dataMode": "raw",
			"version": 2,
			"tests": "",
			"currentHelper": "normal",
			"helperAttributes": {},
			"time": 1482770229227,
			"name": "Config - documentmanager",
			"description": "",
			"collectionId": "88ee8f91-d224-4240-afe3-4725db459e8f",
			"responses": [],
			"rawModeData": "{\r\n  \"storageEngine\": \"FileSystem\",\r\n  \"storageSettings\": {\r\n    \"DataStoreName\": \"MyData.txt\",\r\n    \"RootFolderPath\": \"D:\\\\temp\\\\document-upload\"\r\n  }\r\n}"
		}
	]
}