{
	"id": "a282d12a-0d6a-f15d-11d1-53215a1417d6",
	"name": "Task-SyndicationCalled",
	"description": "",
	"order": [
		"2b63e9cd-b0de-b8f1-9633-1b347ba78a0a",
		"f61ea14f-9e8f-32b9-a319-becbef73a23d",
		"f3600229-28ac-11cd-73f0-2350a65f7d50",
		"e92812e9-26e4-b285-25e2-e7b27185bdf5",
		"7038b982-ead0-3c6c-212f-bfd6c92d3aa7",
		"4fb72aaf-352b-f29f-b9eb-210feccec7cb",
		"3955a946-cf44-08f2-fcd7-5bd3550e52c5",
		"b88d8d56-43dc-2713-1875-293735638ed9"
	],
	"folders": [],
	"timestamp": 0,
	"owner": "54579",
	"public": false,
	"requests": [
		{
			"id": "2b63e9cd-b0de-b8f1-9633-1b347ba78a0a",
			"headers": "Authorization: Bearer eyJhbGciOiJIUzI1NiIsInR5cCI6IkpXVCJ9.eyJpc3MiOiJteS1hcHAiLCJpYXQiOiIyMDE1LTEwLTA5VDA1OjExOjI3LjUzNzc3MjdaIiwiZXhwIjpudWxsLCJzdWIiOm51bGwsInRlbmFudCI6Im15LXRlbmFudCIsInNjb3BlIjpudWxsfQ.vVcomx0eqAs8WvFWEB-ntIB8kaijAqEzXB1AC8bNvaM\nContent-Type: application/json\n",
			"url": "{{default_host}}:5014/",
			"preRequestScript": "",
			"pathVariables": {},
			"method": "PUT",
			"data": [],
			"dataMode": "raw",
			"tests": "\n\ntests[\"Loan onboarding - Status code is 200\"] = responseCode.code === 200;\n\ntests[\"Loan onboarding - Response time is less than SLA\"] = responseTime < environment.SLA_Time;",
			"currentHelper": "normal",
			"helperAttributes": {},
			"time": 1483726399230,
			"name": "api - Register Tenant",
			"description": "",
			"collectionId": "a282d12a-0d6a-f15d-11d1-53215a1417d6",
			"responses": [],
			"rawModeData": "{\n    \"Name\" : \"my-tenant\",\n    \"Email\" : \"mytenant@gmail.com\",\n    \"Phone\" : \"(999) 999-9999\",\n    \"Website\" : \"www.tenant.com\",\n    \"IsActive\" : true\n}"
		},
		{
			"id": "3955a946-cf44-08f2-fcd7-5bd3550e52c5",
			"headers": "Authorization: Bearer eyJhbGciOiJIUzI1NiIsInR5cCI6IkpXVCJ9.eyJpc3MiOiJteS1hcHAiLCJpYXQiOiIyMDE1LTEwLTA5VDA1OjExOjI3LjUzNzc3MjdaIiwiZXhwIjpudWxsLCJzdWIiOm51bGwsInRlbmFudCI6Im15LXRlbmFudCIsInNjb3BlIjpudWxsfQ.vVcomx0eqAs8WvFWEB-ntIB8kaijAqEzXB1AC8bNvaM\nContent-Type: application/json\n",
			"url": "{{default_host}}:5055/TestTemplate/v1.5/html/process",
			"preRequestScript": null,
			"pathVariables": {},
			"method": "POST",
			"data": [],
			"dataMode": "raw",
			"tests": null,
			"currentHelper": "normal",
			"helperAttributes": {},
			"time": 1483976269179,
			"name": "Process Template",
			"description": "",
			"collectionId": "a282d12a-0d6a-f15d-11d1-53215a1417d6",
			"responses": [],
			"rawModeData": "{\r\n    \"title\": \" ######## TITLE ######\",\r\n    \"body\": \"###### BODY #####\"\r\n}"
		},
		{
			"id": "4fb72aaf-352b-f29f-b9eb-210feccec7cb",
			"headers": "Content-Type: application/json\nAuthorization: Bearer eyJhbGciOiJIUzI1NiIsInR5cCI6IkpXVCJ9.eyJpc3MiOiJteS1hcHAiLCJpYXQiOiIyMDE1LTEwLTA5VDA1OjExOjI3LjUzNzc3MjdaIiwiZXhwIjpudWxsLCJzdWIiOm51bGwsInRlbmFudCI6Im15LXRlbmFudCIsInNjb3BlIjpudWxsfQ.vVcomx0eqAs8WvFWEB-ntIB8kaijAqEzXB1AC8bNvaM\n",
			"url": "{{default_host}}:5055/",
			"preRequestScript": null,
			"pathVariables": {},
			"method": "PUT",
			"data": [],
			"dataMode": "raw",
			"tests": null,
			"currentHelper": "normal",
			"helperAttributes": {},
			"time": 1483975383348,
			"name": "Create Template for Task",
			"description": "Create Template for Task.Syndication.SyndicationCalled",
			"collectionId": "a282d12a-0d6a-f15d-11d1-53215a1417d6",
			"responses": [],
			"rawModeData": "{\n    \"name\":\"TestTemplate\",\n    \"title\": \"TestTemplate\",\n    \"format\": \"Html\",\n    \"version\" : \"v1.5\",\n    \"body\": \"<!DOCTYPE html><html lang='en'><head><meta charset='utf-8'/><script src='https://cdnjs.cloudflare.com/ajax/libs/jquery/1.9.1/jquery.js'></script><link rel='stylesheet'href='https://maxcdn.bootstrapcdn.com/bootstrap/3.3.6/css/bootstrap.min.css'/><link rel='stylesheet'href='https://maxcdn.bootstrapcdn.com/font-awesome/4.4.0/css/font-awesome.min.css'/><title>{{title}}</title></head><body style='color: #333333'><div class='col-sm-12'style='background-color:#DD4814; color:#fff'><h1>{{title}}<h1/></div><div class='col-sm-12 text-center'><div class='form-group'><br/><br/><div class=body>{{body}}</div></div></div><hr/></div></body></html>\",\n    \"properties\": {\n      \"pageSize\": \"A4\",\n      \"pageWidth\": \"21cm\",\n      \"pageHeight\": \"29.7cm\",\n      \"orientation\": \"portrait\",\n      \"dpi\": 300,\n      \"imageQuality\": 90,\n      \"marginTop\": \"10\",\n      \"marginBottom\": \"10\",\n      \"marginLeft\": \"10\",\n      \"marginRight\": \"10\"\n    }\n}"
		},
		{
			"id": "7038b982-ead0-3c6c-212f-bfd6c92d3aa7",
			"headers": "Authorization: Bearer eyJhbGciOiJIUzI1NiIsInR5cCI6IkpXVCJ9.eyJpc3MiOiJteS1hcHAiLCJpYXQiOiIyMDE1LTEwLTA5VDA1OjExOjI3LjUzNzc3MjdaIiwiZXhwIjpudWxsLCJzdWIiOm51bGwsInRlbmFudCI6Im15LXRlbmFudCIsInNjb3BlIjpudWxsfQ.vVcomx0eqAs8WvFWEB-ntIB8kaijAqEzXB1AC8bNvaM\nContent-Type: application/json\n",
			"url": "{{default_host}}:{{lookup_port}}/entityTypes",
			"pathVariables": {},
			"preRequestScript": null,
			"method": "POST",
			"collectionId": "a282d12a-0d6a-f15d-11d1-53215a1417d6",
			"data": [],
			"dataMode": "raw",
			"name": "Lookup : Add entityTypes",
			"description": "",
			"descriptionFormat": "html",
			"time": 1483977344631,
			"version": 2,
			"responses": [],
			"tests": null,
			"currentHelper": "normal",
			"helperAttributes": {},
			"rawModeData": "{\r\n    \"merchant\": \"merchant\",\r\n    \"application\": \"application\",\r\n    \"loan\": \"loan\",\r\n    \"user\": \"user\",\r\n    \"borrower\": \"borrower\"\r\n}"
		},
		{
			"id": "b88d8d56-43dc-2713-1875-293735638ed9",
			"headers": "Authorization: Bearer eyJhbGciOiJIUzI1NiIsInR5cCI6IkpXVCJ9.eyJpc3MiOiJteS1hcHAiLCJpYXQiOiIyMDE1LTEwLTA5VDA1OjExOjI3LjUzNzc3MjdaIiwiZXhwIjpudWxsLCJzdWIiOm51bGwsInRlbmFudCI6Im15LXRlbmFudCIsInNjb3BlIjpudWxsfQ.vVcomx0eqAs8WvFWEB-ntIB8kaijAqEzXB1AC8bNvaM\nContent-Type: application/json\n",
			"url": "{{default_host}}:5004/SyndicationCalledEvent",
			"preRequestScript": "",
			"pathVariables": {},
			"method": "POST",
			"data": [],
			"dataMode": "raw",
			"tests": "",
			"currentHelper": "normal",
			"helperAttributes": {},
			"time": 1483975413196,
			"name": "Event - SyndicationCalledEvent",
			"description": "Simulation of SyndicationCalledEvent",
			"collectionId": "a282d12a-0d6a-f15d-11d1-53215a1417d6",
			"responses": [],
			"rawModeData": "{\r\n    \"Data\": \r\n    {\r\n        \"title\": \" ######## TITLE ######\",\r\n        \"body\": \"###### BODY #####\"\r\n    },\r\n    \"EntityId\": \"EntityId\",\r\n    \"EntityType\" :\"Application\",\r\n    \"Name\": \"EquifaxCreditReport\"\r\n}"
		},
		{
			"id": "e92812e9-26e4-b285-25e2-e7b27185bdf5",
			"headers": "Authorization: Bearer eyJhbGciOiJIUzI1NiIsInR5cCI6IkpXVCJ9.eyJpc3MiOiJteS1hcHAiLCJpYXQiOiIyMDE1LTEwLTA5VDA1OjExOjI3LjUzNzc3MjdaIiwiZXhwIjpudWxsLCJzdWIiOm51bGwsInRlbmFudCI6Im15LXRlbmFudCIsInNjb3BlIjpudWxsfQ.vVcomx0eqAs8WvFWEB-ntIB8kaijAqEzXB1AC8bNvaM\nContent-Type: application/json\n",
			"url": "{{default_host}}:5008/tenant",
			"preRequestScript": "",
			"pathVariables": {},
			"method": "POST",
			"data": [],
			"dataMode": "raw",
			"tests": "",
			"currentHelper": "normal",
			"helperAttributes": {},
			"time": 1483977935647,
			"name": "Config. tenant",
			"description": "",
			"collectionId": "a282d12a-0d6a-f15d-11d1-53215a1417d6",
			"responses": [],
			"rawModeData": "{\r\n    \"paymentTimeLimit\": \"15\",\r\n    \"timezone\": \"America/Los_Angeles\"\r\n}"
		},
		{
			"id": "f3600229-28ac-11cd-73f0-2350a65f7d50",
			"headers": "Authorization: Bearer eyJhbGciOiJIUzI1NiIsInR5cCI6IkpXVCJ9.eyJpc3MiOiJteS1hcHAiLCJpYXQiOiIyMDE1LTEwLTA5VDA1OjExOjI3LjUzNzc3MjdaIiwiZXhwIjpudWxsLCJzdWIiOm51bGwsInRlbmFudCI6Im15LXRlbmFudCIsInNjb3BlIjpudWxsfQ.vVcomx0eqAs8WvFWEB-ntIB8kaijAqEzXB1AC8bNvaM\nContent-Type: application/json\n",
			"url": "{{default_host}}:5008/documentmanager",
			"preRequestScript": "",
			"pathVariables": {},
			"method": "POST",
			"data": [],
			"dataMode": "raw",
			"tests": "",
			"currentHelper": "normal",
			"helperAttributes": {},
			"time": 1483977855280,
			"name": "Config. documentmanager",
			"description": "",
			"collectionId": "a282d12a-0d6a-f15d-11d1-53215a1417d6",
			"responses": [],
			"rawModeData": "{\r\n  \"StorageEngine\": \"AmazonS3\",\r\n  \"StorageSettings\": {\r\n      \"DataStoreName\": \".datastore\",\r\n      \"AccessToken\": \"AKIAIQRJTXPBGT56BKTQ\",\r\n    \"SecretToken\": \"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\",\r\n    \"BucketName\": \"test-lendfoundry\",\r\n    \"RegionName\": \"us-west-2\"\r\n  }\r\n}"
		},
		{
			"id": "f61ea14f-9e8f-32b9-a319-becbef73a23d",
			"headers": "Authorization: Bearer eyJhbGciOiJIUzI1NiIsInR5cCI6IkpXVCJ9.eyJpc3MiOiJteS1hcHAiLCJpYXQiOiIyMDE1LTEwLTA5VDA1OjExOjI3LjUzNzc3MjdaIiwiZXhwIjpudWxsLCJzdWIiOm51bGwsInRlbmFudCI6Im15LXRlbmFudCIsInNjb3BlIjpudWxsfQ.vVcomx0eqAs8WvFWEB-ntIB8kaijAqEzXB1AC8bNvaM\nContent-Type: application/json\n",
			"url": "{{default_host}}:5008/task_syndication_called",
			"preRequestScript": "",
			"pathVariables": {},
			"method": "POST",
			"data": [],
			"dataMode": "raw",
			"tests": "",
			"currentHelper": "normal",
			"helperAttributes": {},
			"time": 1484237139366,
			"name": "Config. task_syndication_called",
			"description": "Configuration related to SyndicationCalled Project",
			"collectionId": "a282d12a-0d6a-f15d-11d1-53215a1417d6",
			"responses": [],
			"rawModeData": "{\n  \"syndications\": {\n    \"merchant\": [\n      {\n        \"syndicationName\": \"LexisNexisBusinessReport\",\n        \"templateName\": \"TestTemplate\",\n        \"templateVersion\": \"v1\",\n        \"document\": {\n          \"name\": \"Business Report from LexisNexis\",\n          \"tags\": [\n            \"Business Report\"\n          ]\n        }\n      }\n    ],\n    \"application\": [\n      {\n        \"syndicationName\": \"EquifaxCreditReport\",\n        \"templateName\": \"CreditReport\",\n        \"templateVersion\": \"v1\",\n        \"document\": {\n          \"name\": \"CR.pdf\",\n          \"tags\": [\n            \"Credit Report\"\n          ]\n        }\n      },\n      {\n        \"syndicationName\": \"lexisnexisInstantId\",\n        \"templateName\": \"TestTemplate\",\n        \"templateVersion\": \"v1\",\n        \"document\": {\n          \"name\": \"LNI.pdf\",\n          \"tags\": [\n            \"Credit Report\"\n          ]\n        }\n      }\n    ]\n  }\n}"
		}
	]
}